320 Final Project
…
#fixing Enrollment formatting
formatted_college_tab$TotalEnrollment <- sub("\n            ", "",formatted_college_tab$TotalEnrollment )
formatted_college_tab$TotalEnrollment  <-sub("\\,", "",formatted_college_tab$TotalEnrollment )
formatted_college_tab$TotalEnrollment <- as.double(formatted_college_tab$TotalEnrollment)

#adding another column with total cost
formatted_college_tab <- formatted_college_tab %>% mutate(TotalCostThousands =TuitionFeesThousands + RoomBoardThousands )

formatted_college_tab <- na.omit(formatted_college_tab)
as.tibble(formatted_college_tab)

## Warning: `as.tibble()` is deprecated, use `as_tibble()` (but mind the new semantics).
## This warning is displayed once per session.

## # A tibble: 107 x 15
##    URL   CollegeName TuitionFeesThou RoomBoardThousa TotalEnrollment
##    <chr> <chr>                  <dbl>            <dbl>           <dbl>
##  1 http Princeton              47.1             15.6            8273
##  2 http Harvard Un             50.4             17.2           20604
##  3 http Columbia U             59.4             14.0           25968
##  4 http Massachuse             51.8             15.5           11466
##  5 http University             57.0             16.4           13736
##  6 http Yale Unive             53.4             16             12974
##  7 http Stanford U             51.4             15.8           17178
##  8 http Duke Unive             56.0             15.9           16294
##  9 http University             55.6             15.6           21907
## 10 http Johns Hopk             53.7             15.8           25151
## #  with 97 more rows, and 10 more variables: SchoolType <fct>,
## #   YearFounded <int>, Setting <fct>, Endowment2017Millions <dbl>,
## #   MedianStartingSalaryOfAlumniThousands <dbl>, Selectivity <fct>,
## #   Fall2017AcceptanceRate <dbl>, MalePercentage <dbl>,
## #   FourYearGraduationRate <dbl>, TotalCostThousands <dbl>
…
